Recoding data
…
.pull-right[
Then tidy the data:

```r
iris <- as_tibble(iris) %>%
  clean_names()

iris
```

```
## # A tibble: 150 × 5
##   sepal_length sepal_width petal_length petal_width species
##          <dbl>       <dbl>        <dbl>       <dbl> <fct>  
## 1          5.1         3.5          1.4         0.2 setosa 
## 2          4.9         3            1.4         0.2 setosa 
## 3          4.7         3.2          1.3         0.2 setosa 
## 4          4.6         3.1          1.5         0.2 setosa 
## 5          5           3.6          1.4         0.2 setosa 
## 6          5.4         3.9          1.7         0.4 setosa 
## # … with 144 more rows
```
…
---

## Use `mutate()` and `if_else()` if you want to replace values based on certain conditions

If `petal_length` is less than three, recode `petal_length` to "short". Otherwise recode `petal_length` to "long".

```r
iris
```

```
## # A tibble: 150 × 5
##   sepal_length sepal_width petal_length petal_width species
##          <dbl>       <dbl>        <dbl>       <dbl> <fct>  
## 1          5.1         3.5          1.4         0.2 setosa 
## 2          4.9         3            1.4         0.2 setosa 
## 3          4.7         3.2          1.3         0.2 setosa 
## 4          4.6         3.1          1.5         0.2 setosa 
## 5          5           3.6          1.4         0.2 setosa 
## 6          5.4         3.9          1.7         0.4 setosa 
## # … with 144 more rows
```

---

## Use `mutate()` and `if_else()` if you want to replace values based on certain conditions

If `petal_length` is less than three, recode `petal_length` to "short". Otherwise recode `petal_length` to "long".

```r
iris %>%
* mutate(petal_length = if_else(petal_length < 3, "short", "long"))
```

```
## # A tibble: 150 × 5
##   sepal_length sepal_width petal_length petal_width species
##          <dbl>       <dbl> <chr>              <dbl> <fct>  
## 1          5.1         3.5 short                0.2 setosa 
## 2          4.9         3   short                0.2 setosa 
## 3          4.7         3.2 short                0.2 setosa 
## 4          4.6         3.1 short                0.2 setosa 
## 5          5           3.6 short                0.2 setosa 
## 6          5.4         3.9 short                0.4 setosa 
## # … with 144 more rows
```

---

## Create a new variable if you want to preserve the original values

```r
iris %>%
* mutate(petal_category = if_else(petal_length < 3, "short", "long"))
```

```
## # A tibble: 150 × 6
##   sepal_length sepal_width petal_length petal_w…¹ species petal…²
##          <dbl>       <dbl>        <dbl>     <dbl> <fct>   <chr>  
## 1          5.1         3.5          1.4       0.2 setosa  short  
## 2          4.9         3            1.4       0.2 setosa  short  
## 3          4.7         3.2          1.3       0.2 setosa  short  
## 4          4.6         3.1          1.5       0.2 setosa  short  
## 5          5           3.6          1.4       0.2 setosa  short  
## 6          5.4         3.9          1.7       0.4 setosa  short  
## # … with 144 more rows, and abbreviated variable names
## #   ¹​petal_width, ²​petal_category
```
…
# An example, with some data wrangling too

---

### Create new categorical variable, then group and summarize by that variable

Calculate number of category 3, 4, and 5 storms each decade and plot the results. 

```r
storms %>%
  select(name, year, month, day, hour, category)
```

```
## # A tibble: 19,066 × 6
##   name   year month   day  hour category
##   <chr> <dbl> <dbl> <int> <dbl>    <dbl>
## 1 Amy    1975     6    27     0       NA
## 2 Amy    1975     6    27     6       NA
## 3 Amy    1975     6    27    12       NA
## 4 Amy    1975     6    27    18       NA
## 5 Amy    1975     6    28     0       NA
## 6 Amy    1975     6    28     6       NA
## # … with 19,060 more rows
```

---

## First filter so year is between 1980 and 2020 and category >= 3 

```r
storms %>%
* select(name, year, month, day, hour, category) %>%
* filter(year >= 1980,
*        year < 2020,
*        category > 3)
```

```
## # A tibble: 578 × 6
##   name   year month   day  hour category
##   <chr> <dbl> <dbl> <int> <dbl>    <dbl>
## 1 Allen  1980     8     4     6        4
## 2 Allen  1980     8     4    12        4
## 3 Allen  1980     8     4    18        4
## 4 Allen  1980     8     5     0        5
## 5 Allen  1980     8     5     6        5
## 6 Allen  1980     8     5    12        5
## # … with 572 more rows
```
…
```r
storms %>%
  select(name, year, month, day, hour, category) %>% 
  filter(year >= 1980, 
         year < 2020, 
         category > 3) %>%
* group_by(name, year) %>%
* summarize(maxcat = max(category))
```
]

.panel[.panel-name[Output]

```
## # A tibble: 65 × 3
## # Groups:   name [63]
##   name     year maxcat
##   <chr>   <dbl>  <dbl>
## 1 Allen    1980      5
## 2 Andrew   1992      5
## 3 Bill     2009      4
## 4 Bret     1999      4
## 5 Charley  2004      4
## 6 Cindy    1999      4
## # … with 59 more rows
```
…
.panel[.panel-name[Output]

```
## # A tibble: 65 × 4
## # Groups:   name [63]
##   name     year maxcat decade
##   <chr>   <dbl>  <dbl> <chr> 
## 1 Allen    1980      5 1980s 
## 2 Andrew   1992      5 1990s 
## 3 Bill     2009      4 2000s 
## 4 Bret     1999      4 1990s 
## 5 Charley  2004      4 2000s 
## 6 Cindy    1999      4 1990s 
## # … with 59 more rows
```
…
