Data classes
…
- A **time** within a day. Tibbles print this as `<time>`.

- A **date-time** is a date plus a time: it uniquely identifies an instant in time (typically to the nearest second). Tibbles print this as `<dttm>`. Elsewhere in R these are called POSIXct, but I don’t think that’s a very useful name.

---

## When you read in data, check data types

```r
flats <- read_csv("data/flats_sub_2015.csv")
flats
```

```
## # A tibble: 672 × 10
##   date   time     datetime  depth_m salin…¹    ph do_mg_l turb_…²
##   <chr>  <time>   <chr>       <dbl>   <dbl> <dbl>   <dbl>   <dbl>
## 1 7/1/15 00:00:24 7/1/15 0…   0.741    0.12  8.53   10.2      1.9
## 2 7/1/15 00:15:24 7/1/15 0…   0.706    0.12  8.45    9.91     2  
## 3 7/1/15 00:30:24 7/1/15 0…   0.687    0.12  8.38    9.68     1.9
## 4 7/1/15 00:45:24 7/1/15 0…   0.684    0.12  8.29    9.47     2  
## 5 7/1/15 01:00:23 7/1/15 1…   0.73     0.12  7.94    8.49     6.1
## 6 7/1/15 01:15:24 7/1/15 1…   0.683    0.12  7.67    7.9      6.1
## # … with 666 more rows, 2 more variables: chl_ug_l <dbl>,
## #   t_c <dbl>, and abbreviated variable names ¹​salinity_ppt,
## #   ²​turb_ntu
```
…
## Coerce `flats` data into dates and datetimes

```r
flats1 <- flats %>%
* mutate(datetime = mdy_hm(datetime),
*        date = mdy(date))

flats1
```

```
## # A tibble: 672 × 10
##   date       time     datetime            depth_m salinit…¹    ph
##   <date>     <time>   <dttm>                <dbl>     <dbl> <dbl>
## 1 2015-07-01 00:00:24 2015-07-01 00:00:00   0.741      0.12  8.53
## 2 2015-07-01 00:15:24 2015-07-01 00:15:00   0.706      0.12  8.45
## 3 2015-07-01 00:30:24 2015-07-01 00:30:00   0.687      0.12  8.38
## 4 2015-07-01 00:45:24 2015-07-01 00:45:00   0.684      0.12  8.29
## 5 2015-07-01 01:00:23 2015-07-01 01:00:00   0.73       0.12  7.94
## 6 2015-07-01 01:15:24 2015-07-01 01:15:00   0.683      0.12  7.67
## # … with 666 more rows, 4 more variables: do_mg_l <dbl>,
## #   turb_ntu <dbl>, chl_ug_l <dbl>, t_c <dbl>, and abbreviated
## #   variable name ¹​salinity_ppt
```
…
---

## What if your data contain year, month, day, etc. in separate columns?

```r
flats2 <- flats1 %>%
  select(date, depth_m) %>%
  separate(date, c("year", "month", "day"))
flats2
```

```
## # A tibble: 672 × 4
##   year  month day   depth_m
##   <chr> <chr> <chr>   <dbl>
## 1 2015  07    01      0.741
## 2 2015  07    01      0.706
## 3 2015  07    01      0.687
## 4 2015  07    01      0.684
## 5 2015  07    01      0.73 
## 6 2015  07    01      0.683
## # … with 666 more rows
```

---

## What if your data contain year, month, day, etc. in separate columns?

Use the `make_date()` or `make_datetime` functions!

```r
flats2 %>%
* mutate(date = make_date(year, month, day)) %>%
  select(date, depth_m)
```

```
## # A tibble: 672 × 2
##   date       depth_m
##   <date>       <dbl>
## 1 2015-07-01   0.741
## 2 2015-07-01   0.706
## 3 2015-07-01   0.687
## 4 2015-07-01   0.684
## 5 2015-07-01   0.73 
## 6 2015-07-01   0.683
## # … with 666 more rows
```
…
